,number,zip,city,street
0,62418,77063,Houston,Highmeadow Dr
1,3004,78734,Austin,Pamella Ct
2,62524,77386,Spring,Magnolia Fair Way
3,623351,77082,Houston,Arlon Trail
4,3619,78257,San Antonio,Hyland Frost
5,319,76049,Granbury,Donna Circle
6,62321,76092,Southlake,Village Green Dr
7,621,77479,Sugar Land,Rainford Ct
8,6225,77845,College Station,Discovery Drive
9,3818,77584,Pearland,Abbeywood Dr
10,62004,77573,League City,Landing Blvd
11,6211,78202,San Antonio,Hudson
12,62805,75062-5270,N Irving,Harvard St
13,629625,77484,Waller,Bunting Rd
14,62917,76901,San Angelo,Forest Park Avenue
15,6211,78202,San Antonio,Hudson
16,62000,77006,Houston,Montrose Blvd
17,62811,75149,Mesquite,Quail Run Drive
18,62670,77080,Houston,Blankenship Dr
19,62734,77573,League City,Quail Dove Ln
20,62801,75078,Prosper,Windung Creek Road
21,62315,76542,Killeen,Crossfire Trl
22,3001,78758,Austin,Esperanza Crossing
23,62229,77581,Pearland,Sable Garden Ct
24,62001,75034,Frisco,Cane Hill Dr
25,312,75098,Wylie,Austin Ave
26,3885,77708,Beaumont,Broadleaf Dr
27,6209,75061,Irving,Lydia Ct
28,62255,77077,Houston,Eldridge Pkwy
29,6209,77531,Clute,Godfrey St
30,62106,75044,Garland,Homestead Pl
31,62030,78374,,
32,62551,77396,Humble,Barlow Springs Lane
33,3415,75039,Irving,Las Colinas Blvd
34,62121,77027,,
35,62915,75232,Dallas,Ariel Drive
36,6219,75844,,
37,625768,78255,San Antonio,Two Springs
38,3930,77028,,
39,62225,76201,Denton,Tulane Dr
40,3908,75038,Irving,Longwood Ct
41,3788,77046,Houston,Richmond Ave
42,3802,75038,Irving,North Belt Line Rd
43,62903,75094,Parker,Ricks Ct
44,62456,76132,Fort Worth,Enclave Circle
45,345,76712,Woodway,Rainbow Drive
46,302,79546,Rotan,N Lakeview Ave
47,62313,78738,Lakeway,Serene Hills Dr
48,62501,75428,Commerce,Monroe St
49,625,78254-5561,San Antonio,Finesilver
50,6205,76054,Hurst,Carolyn Dr
51,6215,78212,San Antonio,W Rosewood Ave
52,623301,78729,Austin,Tamayo Dr
53,3109,77581-1731,Pearland,Macoma Ave
54,62321,77043,Houston,Upland Drive
55,3639,75287,Dallas,Eden Drive
56,62719,77571,La Porte,Dover Hill Rd
57,6231,75076,Pottsboro,Rod N Reel Ln
58,62524,77386,Spring,Magnolia Fair Way
59,624402,77489,Missouri City,Stone Park Road
60,6211,77571,Shoreacres,Shoreacres Blvd
61,62809,76226,Lantana,Thompson Drive
62,6210,78640,,
63,6219,75844,,
64,621134,77407,Richmond,Chadbourne Trace Ln
65,332,787514727,Austin,Towne Park Trl
66,6202,78613,Cedar Park,Summer Park Bend
67,6235,77062,Houston,Buoy Road
68,3914,77449,Katy,Eagle Ridge Dr
69,3788,77046,Houston,Richmond Ave
70,3726,77023,Houston,Wildwood Way
71,62500,78723,Austin,Gloucester Ln
72,62501,79707,Midland,Sherwood Dr
73,3930,77028,,
74,622202,77469,Richmond,Auburn Canyon Ln
75,62603,77449,Katy,Desert Sage Dr
76,620502,78750,Austin,Salt Block Cir
77,362,78942,Giddings,South Johnson Avenue
78,623130,77047,,Royal Bell Court
79,62659,78521,,Westminster Road
80,6209,77531,Clute,Godfrey St
81,62615,77340,Huntsville,Sycamore Avenue
82,622,75559,De Kalb,Williams Ln
83,62301,78748,Austin,Tea Rose Trail
84,307,78006,,
85,621014,77433,Cypress,Jadestone Creek Ln
86,62523,75063,Irving,Biltmore Lane
87,3124,76210,Denton,Ottowa Lane
88,620877,75218,Dallas,Caprock Circle
89,62111,75061,Irving,Esters Rd
90,62826,77035,Houston,Arboles Dr
91,310,76208,Shady Shores,S Shady Shores Rd
92,62315,78666,San Marcos,Ozark Dr
93,62610,77502,Pasadena,Burke Road
94,62325,75062,Irving,Muret St
95,62610,77502,Pasadena,Burke Road
96,625707,77082,Houston,Crystal Grove Dr
97,62009,79720,Big Spring,Runnels St
98,62010,77459,Missouri City,Hilton Head Dr
99,62005,76131,Fort Worth,Albany Dr
100,62535,77030,Houston,Addison Road
101,624914,78728,Austin,Doria Dr
102,3165,75038,Irving,Pleasant Run Road
103,62056,78253,San Antonio,Hardee Pass
